…
print(rawData)
```

```
## # A tibble: 381 × 12
##    Gender Married Dependents Education Self_Employed ApplicantIncome
##    <fct>  <fct>   <fct>      <fct>     <fct>                   <dbl>
##  1 Male   TRUE    1          TRUE      FALSE                    4583
##  2 Male   TRUE    0          TRUE      TRUE                     3000
##  3 Male   TRUE    0          FALSE     FALSE                    2583
##  4 Male   FALSE   0          TRUE      FALSE                    6000
##  5 Male   TRUE    0          FALSE     FALSE                    2333
##  6 Male   TRUE    2          TRUE      FALSE                    3200
##  7 Male   TRUE    2          TRUE      <NA>                     2500
##  8 Male   FALSE   0          TRUE      FALSE                    1853
##  9 Male   TRUE    2          TRUE      FALSE                    1299
## 10 Male   FALSE   0          TRUE      FALSE                    4950
## # ℹ 371 more rows
## # ℹ 6 more variables: CoapplicantIncome <dbl>, LoanAmount <dbl>,
## #   Loan_Amount_Term <dbl>, Credit_History <dbl>, Property_Area <fct>,
## #   Loan_Status <fct>
```
…
